<?xml version="1.0"?>
<svg width="64" height="64" xmlns="http://www.w3.org/2000/svg" xmlns:svg="http://www.w3.org/2000/svg">
 <defs>
  <linearGradient y2="100%" x2="0%" y1="0%" x1="0%" id="grad1">
   <stop stop-color="#ffebeb" offset="0%"/>
   <stop stop-color="#d62727" offset="100%"/>
  </linearGradient>
 </defs>
 <g>
  <title>Layer 1</title>
  <path stroke="black" id="svg_1" d="m58.958225,42.501701c-0.536327,-0.497402 -21.930042,-17.200617 -21.930042,-17.200617c-0.029793,-0.032089 -0.059593,-0.06418 -0.074482,-0.080225c-0.819397,-0.89854 -0.774708,-1.668715 -0.834297,-3.016529c0,0 -0.134087,-11.071288 -0.327759,-14.76172s-1.981453,-6.113284 -4.067192,-6.113284c0,0 0,0 0,0s0,0 0,0c-2.085741,0 -3.858618,2.406803 -4.052294,6.097235s-0.327753,14.761724 -0.327753,14.761724c-0.059599,1.347807 -0.014902,2.117985 -0.834297,3.016529c-0.029797,0.032089 -0.059591,0.064177 -0.074493,0.080225c0,0 -21.378813,16.703211 -21.930046,17.200613s-1.370628,1.251541 -1.370628,2.920261c0,1.957531 0.536332,2.198212 1.5792,1.861256c0,0 20.887177,-6.337914 21.661883,-6.546497s1.176952,0.096268 1.236544,1.2034s0.119183,7.445042 0.134085,8.183125s-0.089388,0.754139 -0.432051,1.187363l-4.767399,6.546505c-0.253269,0.320908 -0.402248,0.722042 -0.402248,1.171307c0,0 0,0.978767 0,1.98962s0.417149,1.171314 1.221649,0.786228s4.856789,-2.791897 4.856789,-2.791897c0.10429,-0.04813 0.685318,-0.304859 0.953482,-0.304859c0.625719,0 1.191847,-0.016048 1.311035,0.994816c0.193676,1.82917 0.730009,3.257202 1.26634,3.257202c0,0 0,0 0,0s0,0 0,0c0.536331,0 1.072662,-1.428032 1.266338,-3.257202c0.10429,-1.010864 0.685314,-0.994816 1.311039,-0.994816c0.268162,0 0.849186,0.256729 0.95348,0.304859c0,0 4.052299,2.406803 4.856796,2.791897s1.221634,0.224632 1.221634,-0.786228s0,-1.98962 0,-1.98962c0,-0.449265 -0.148983,-0.866447 -0.402241,-1.171307l-4.767399,-6.546505c-0.342663,-0.433224 -0.432056,-0.465321 -0.432056,-1.187363s0.074493,-7.075996 0.134094,-8.183125s0.461838,-1.411991 1.236538,-1.2034s21.66188,6.546497 21.66188,6.546497c1.057774,0.336956 1.579197,0.096275 1.579197,-1.861256c-0.044689,-1.652672 -0.864086,-2.406803 -1.415325,-2.904213z" fill="url(#grad1)"/>
 </g>
</svg>